wave.vcd
$date
	Mon Apr 27 21:49:06 2026
$end
$version
	Icarus Verilog
$end
$timescale
	1ps
$end
$scope module tb_RISCVCPU $end
$var wire 1 ! halt $end
$var reg 1 " clock $end
$var reg 1 # reset $end
$var integer 32 $ i [31:0] $end
$scope module cpu $end
$var wire 1 " clock $end
$var wire 1 % flush $end
$var wire 1 & instr_commit $end
$var wire 1 # reset $end
$var wire 1 ' stall $end
$var wire 32 ( imm_s [31:0] $end
$var wire 32 ) imm_i [31:0] $end
$var wire 2 * forwardB [1:0] $end
$var wire 2 + forwardA [1:0] $end
$var wire 32 , branch_target [31:0] $end
$var wire 1 - branch_taken $end
$var wire 5 . MEMWBrd [4:0] $end
$var wire 7 / MEMWBop [6:0] $end
$var wire 5 0 IFIDrs2 [4:0] $end
$var wire 5 1 IFIDrs1 [4:0] $end
$var wire 5 2 IDEXrs2 [4:0] $end
$var wire 5 3 IDEXrs1 [4:0] $end
$var wire 7 4 IDEXop [6:0] $end
$var wire 5 5 EXMEMrd [4:0] $end
$var wire 7 6 EXMEMop [6:0] $end
$var wire 32 7 Bin [31:0] $end
$var wire 32 8 Ain [31:0] $end
$var parameter 7 9 ALUop $end
$var parameter 7 : BEQ $end
$var parameter 2 ; FROM_MEM $end
$var parameter 2 < FROM_WB_ALU $end
$var parameter 2 = FROM_WB_LD $end
$var parameter 32 > HALT $end
$var parameter 7 ? HALT_OP $end
$var parameter 7 @ LW $end
$var parameter 32 A NOP $end
$var parameter 2 B NO_FORWARD $end
$var parameter 7 C SW $end
$var reg 32 D EXMEMALUOut [31:0] $end
$var reg 32 E EXMEMB [31:0] $end
$var reg 32 F EXMEMIR [31:0] $end
$var reg 32 G IDEXA [31:0] $end
$var reg 32 H IDEXB [31:0] $end
$var reg 32 I IDEXIR [31:0] $end
$var reg 32 J IDEXPC [31:0] $end
$var reg 32 K IFIDIR [31:0] $end
$var reg 32 L IFIDPC [31:0] $end
$var reg 32 M MEMWBIR [31:0] $end
$var reg 32 N MEMWBValue [31:0] $end
$var reg 32 O PC [31:0] $end
$var reg 1 ! halt $end
$var integer 32 P i [31:0] $end
$scope module branch_unit $end
$var wire 32 Q instruction [31:0] $end
$var wire 32 R pc_ex [31:0] $end
$var wire 32 S rs1_value [31:0] $end
$var wire 32 T rs2_value [31:0] $end
$var wire 7 U opcode [6:0] $end
$var wire 32 V branch_imm [31:0] $end
$var parameter 7 W BEQ $end
$var reg 1 - branch_taken $end
$var reg 32 X branch_target [31:0] $end
$upscope $end
$scope module forwarding_unit $end
$var event 1 Y _ivl_0 $end
$var wire 7 Z exmem_op [6:0] $end
$var wire 5 [ exmem_rd [4:0] $end
$var wire 5 \ idex_rs1 [4:0] $end
$var wire 5 ] idex_rs2 [4:0] $end
$var wire 7 ^ memwb_op [6:0] $end
$var wire 5 _ memwb_rd [4:0] $end
$var parameter 7 ` ALUop $end
$var parameter 2 a FROM_MEM $end
$var parameter 2 b FROM_WB_ALU $end
$var parameter 2 c FROM_WB_LD $end
$var parameter 7 d LW $end
$var parameter 2 e NO_FORWARD $end
$var reg 2 f forwardA [1:0] $end
$var reg 2 g forwardB [1:0] $end
$upscope $end
$scope module hazard_unit $end
$var event 1 h _ivl_0 $end
$var wire 7 i exmem_op [6:0] $end
$var wire 5 j exmem_rd [4:0] $end
$var wire 7 k idex_op [6:0] $end
$var wire 5 l idex_rs1 [4:0] $end
$var wire 5 m idex_rs2 [4:0] $end
$var parameter 7 n ALUop $end
$var parameter 7 o BEQ $end
$var parameter 7 p LW $end
$var parameter 7 q SW $end
$var reg 1 ' stall $end
$upscope $end
$scope module stats $end
$var wire 1 - branch_taken $end
$var wire 1 r bypassA_MEM $end
$var wire 1 s bypassA_WB $end
$var wire 1 t bypassB_MEM $end
$var wire 1 u bypassB_WB $end
$var wire 1 " clock $end
$var wire 1 % flush $end
$var wire 1 & instr_commit $end
$var wire 1 # reset $end
$var wire 1 ' stall $end
$var reg 32 v branch_taken_count [31:0] $end
$var reg 32 w bypass_count [31:0] $end
$var reg 32 x cycle_count [31:0] $end
$var reg 32 y flush_count [31:0] $end
$var reg 32 z instr_count [31:0] $end
$var reg 32 { stall_count [31:0] $end
$upscope $end
$upscope $end
$scope task check_expected $end
$var integer 32 | errors [31:0] $end
$upscope $end
$scope task clear_memories $end
$upscope $end
$scope task load_program_full_dependencies $end
$upscope $end
$scope task print_memory_nonzero $end
$var integer 32 } i [31:0] $end
$upscope $end
$scope task print_registers_nonzero $end
$var integer 32 ~ i [31:0] $end
$upscope $end
$scope task print_state_nonzero $end
$var integer 32 !" i [31:0] $end
$upscope $end
$scope task print_stats $end
$var reg 320 "" program_name [319:0] $end
$var real 1 #" cpi $end
$upscope $end
$scope task reset_cpu $end
$upscope $end
$scope task run_full_dependencies $end
$upscope $end
$upscope $end
$enddefinitions $end
$comment Show the parameter values. $end
$dumpall
b100011 q
b11 p
b1100011 o
b10011 n
b0 e
b11 d
b11 c
b10 b
b1 a
b10011 `
b1100011 W
b100011 C
b0 B
b10011 A
b11 @
b1011 ?
b1011 >
b11 =
b10 <
b1 ;
b1100011 :
b10011 9
$end
#0
$dumpvars
r0 #"
bx ""
bx !"
bx ~
bx }
bx |
bx {
bx z
bx y
bx x
bx w
bx v
0u
0t
0s
0r
bx m
bx l
bx k
bx j
bx i
1h
b0 g
b0 f
bx _
bx ^
bx ]
bx \
bx [
bx Z
1Y
bx X
bx0 V
bx U
bx T
bx S
bx R
bx Q
bx P
bx O
bx N
bx M
bx L
bx K
bx J
bx I
bx H
bx G
bx F
bx E
bx D
bx 8
bx 7
bx 6
bx 5
bx 4
bx 3
bx 2
bx 1
bx 0
bx /
bx .
0-
bx ,
b0 +
b0 *
bx )
bx (
0'
x&
0%
b10000000000 $
1#
0"
x!
$end
#5000
b0 7
b0 T
b0 8
b0 S
b100 ,
b100 X
b10011 /
b10011 ^
b0 .
b0 _
0&
b10011 6
b10011 Z
b10011 i
b0 5
b0 [
b0 j
b10011 4
b10011 k
b0 3
b0 \
b0 l
b0 2
b0 ]
b0 m
b0 )
b0 (
b10011 U
b0 V
b0 1
b0 0
b0 y
b0 v
b0 w
b0 {
b0 z
b0 x
0!
b0 N
b0 D
b0 E
b0 H
b0 G
b0 J
b0 R
b0 L
b10011 M
b10011 F
b10011 I
b10011 Q
b10011 K
b0 O
b100000 P
1"
#10000
0"
#15000
b100000 P
1"
#20000
0"
0#
#25000
b1 x
b100 O
b10000010000011 K
1"
#30000
0"
#35000
b11 4
b11 k
b1 (
b11 U
b100000000000 V
b1 1
b101 0
b10000010000011 I
b10000010000011 Q
b1000 O
b100 L
b10100001000000100010011 K
b10 x
1"
#40000
0"
#45000
b11 6
b11 Z
b11 i
b1 5
b1 [
b1 j
b1000 ,
b1000 X
b10011 4
b10011 k
b1 3
b1 \
b1 l
b101 2
b101 ]
b101 m
b101 )
b10 (
b10011 U
b10 V
b10 1
b1 0
b11 x
b10000010000011 F
b100 J
b100 R
b10100001000000100010011 I
b10100001000000100010011 Q
b1100 O
b1000 L
b100010000000110010011 K
1"
#50000
0"
#55000
b11 /
b11 ^
b1 .
b1 _
1&
b10011 6
b10011 Z
b10011 i
b10 5
b10 [
b10 j
b1100 ,
b1100 X
b10 3
b10 \
b10 l
b1 2
b1 ]
b1 m
b1 )
b11 (
b100000000010 V
b0 1
b11 0
b10000010000011 M
b1010 N
b10100001000000100010011 F
b101 D
b1000 J
b1000 R
b100010000000110010011 I
b100010000000110010011 Q
b10000 O
b1100 L
b1100000010001000100011 K
b100 x
1"
#60000
0"
#65000
b10011 /
b10011 ^
b10 .
b10 _
b11 5
b11 [
b11 j
b10000 ,
b10000 X
b100011 4
b100011 k
b0 3
b0 \
b0 l
b11 2
b11 ]
b11 m
b11 )
b100 (
b100011 U
b100 V
b11 1
b1010 0
b1 z
b101 x
b10100001000000100010011 M
b101 N
b100010000000110010011 F
b1 D
b1100 J
b1100 R
b1100000010001000100011 I
b1100000010001000100011 Q
b10100 O
b10000 L
b101000011000001000010011 K
1"
#70000
0"
#75000
b11 .
b11 _
b100011 6
b100011 Z
b100011 i
b100 5
b100 [
b100 j
b10100 ,
b10100 X
b10011 4
b10011 k
b11 3
b11 \
b11 l
b1010 2
b1010 ]
b1010 m
b1010 )
b10011 U
b100 1
b100 0
b100010000000110010011 M
b1 N
b1100000010001000100011 F
b100 D
b10000 J
b10000 R
b101000011000001000010011 I
b101000011000001000010011 Q
b11000 O
b10100 L
b10000100000011001100011 K
b10 z
b110 x
1"
#80000
0"
#85000
1&
b100011 /
b100011 ^
b100 .
b100 _
b10011 6
b10011 Z
b10011 i
1%
1-
b100000 ,
b100000 X
b1100011 4
b1100011 k
b100 3
b100 \
b100 l
b100 2
b100 ]
b100 m
b100 )
b1100 (
b1100011 U
b1100 V
b0 1
b11 0
b11 z
b111 x
b1100000010001000100011 M
b101000011000001000010011 F
b1010 D
b10100 J
b10100 R
b10000100000011001100011 I
b10000100000011001100011 Q
b11100 O
b11000 L
b110001100000000001010010011 K
1"
#90000
0"
#95000
b10011 /
b10011 ^
b1100011 6
b1100011 Z
b1100011 i
b1100 5
b1100 [
b1100 j
b100 ,
b100 X
0%
0-
b10011 4
b10011 k
b0 3
b0 \
b0 l
b0 2
b0 ]
b0 m
b0 )
b0 (
b10011 U
b0 V
b0 0
b101000011000001000010011 M
b1010 N
b0 D
b10000100000011001100011 F
b0 J
b0 R
b0 L
b10011 I
b10011 Q
b10011 K
b100000 O
b1 y
b1 v
b100 z
b1000 x
1"
#100000
0"
#105000
b1100011 /
b1100011 ^
b1100 .
b1100 _
b10011 6
b10011 Z
b10011 i
b0 5
b0 [
b0 j
b100 1
b1 0
b101 z
b1001 x
b10000100000011001100011 M
b10011 F
b100100 O
b100000 L
b100100000001110010011 K
1"
#110000
0"
#115000
b1010 7
b1010 T
b1010 8
b1010 S
b10011 /
b10011 ^
b0 .
b0 _
0&
b100100 ,
b100100 X
b100 3
b100 \
b100 l
b1 2
b1 ]
b1 m
b1 )
b111 (
b100000000110 V
b0 1
b0 0
b10011 M
b0 N
b100000 J
b100000 R
b100100000001110010011 I
b100100000001110010011 Q
b1010 H
b1010 G
b101000 O
b100100 L
b1011 K
b110 z
b1010 x
1"
#120000
0"
#125000
b0 7
b0 T
b0 8
b0 S
b111 5
b111 [
b111 j
b101000 ,
b101000 X
b1011 4
b1011 k
b0 3
b0 \
b0 l
b0 2
b0 ]
b0 m
b0 )
b0 (
b1011 U
b0 V
b1011 x
b1010 E
b100100000001110010011 F
b1011 D
b100100 J
b100100 R
b1011 I
b1011 Q
b0 H
b0 G
b101100 O
b101000 L
b10011 K
1"
#130000
0"
#135000
b111 .
b111 _
1&
b1011 6
b1011 Z
b1011 i
b0 5
b0 [
b0 j
b101100 ,
b101100 X
b10011 4
b10011 k
b10011 U
b100100000001110010011 M
b1011 N
b0 E
b1011 F
b101000 J
b101000 R
b10011 I
b10011 Q
b110000 O
b101100 L
b1100 x
1"
#140000
0"
#145000
0&
b1011 /
b1011 ^
b0 .
b0 _
b10011 6
b10011 Z
b10011 i
b110000 ,
b110000 X
b111 z
b1101 x
b1011 M
b10011 F
b0 D
b101100 J
b101100 R
b110100 O
b110000 L
1"
#150000
0"
#155000
1!
b1110 x
1"
#160000
0"
#165000
b1111 x
b100000 !"
b101 |
r2 #"
b110011001110101011011000110110001011111011001000110010101110000011001010110111001100100011001010110111001100011011010010110010101110011 ""
1"
